…
Load “PULSE biomarker”s dataset (using “haven” package since data is not
csv, it’s in sas).

``` r
pulse_df = 
  haven::read_sas("./data/public_pulse_data.sas7bdat") %>%
  janitor::clean_names()

pulse_df
```

    ## # A tibble: 1,087 x 7
    ##      id   age sex   bdi_score_bl bdi_score_01m bdi_score_06m bdi_score_12m
    ##   <dbl> <dbl> <chr>        <dbl>         <dbl>         <dbl>         <dbl>
    ## 1 10003  48.0 male             7             1             2             0
    ## 2 10015  72.5 male             6            NA            NA            NA
    ## 3 10022  58.5 male            14             3             8            NA
    ## 4 10026  72.7 male            20             6            18            16
    ## 5 10035  60.4 male             4             0             1             2
    ## # ... with 1,082 more rows
…
